…
    ## date created (size, mb): 2021-10-09 16:25:15 (0.913)

    ## file min/max dates: 1999-09-01 / 2021-10-31

Nest data within location

``` r
weather_nested = 
  weather_df %>% 
  nest(data = date:tmin)
weather_nested %>% 
  unnest(data)
```

    ## # A tibble: 1,095 × 6
    ##    name           id          date        prcp  tmax  tmin
    ##    <chr>          <chr>       <date>     <dbl> <dbl> <dbl>
    ##  1 CentralPark_NY USW00094728 2017-01-01     0   8.9   4.4
    ##  2 CentralPark_NY USW00094728 2017-01-02    53   5     2.8
    ##  3 CentralPark_NY USW00094728 2017-01-03   147   6.1   3.9
    ##  4 CentralPark_NY USW00094728 2017-01-04     0  11.1   1.1
    ##  5 CentralPark_NY USW00094728 2017-01-05     0   1.1  -2.7
    ##  6 CentralPark_NY USW00094728 2017-01-06    13   0.6  -3.8
    ##  7 CentralPark_NY USW00094728 2017-01-07    81  -3.2  -6.6
    ##  8 CentralPark_NY USW00094728 2017-01-08     0  -3.8  -8.8
    ##  9 CentralPark_NY USW00094728 2017-01-09     0  -4.9  -9.9
    ## 10 CentralPark_NY USW00094728 2017-01-10     0   7.8  -6  
    ## # … with 1,085 more rows
…
``` r
napoleon_df = 
  tibble(
    urls = urls
  )
napoleon_df %>% 
  mutate(reviews = map(urls, get_page_reviews)) %>% 
  select(reviews) %>% 
  unnest()
```

    ## Warning: `cols` is now required when using unnest().
    ## Please use `cols = c(reviews)`

    ## # A tibble: 50 × 3
    ##    title                                                 stars   text           
    ##    <chr>                                                 <chr>   <chr>          
    ##  1 Yeah., it was pretty good.                            5.0 ou… "\n  Yeah, it …
    ##  2 Love it                                               5.0 ou… "\n  Didn't li…
    ##  3 it was                                                5.0 ou… "\n  mad good …
    ##  4 Fun!                                                  4.0 ou… "\n  Fun and e…
    ##  5 Vintage                                               5.0 ou… "\n  Easy to o…
    ##  6 too many commercials                                  1.0 ou… "\n  5 minutes…
    ##  7 this film is so good!                                 5.0 ou… "\n  VOTE FOR …
    ##  8 Good movie                                            5.0 ou… "\n  Weird sto…
    ##  9 I Just everyone to know this....                      5.0 ou… "\n  VOTE FOR …
    ## 10 the cobweb in his hair during the bike ramp scene lol 5.0 ou… "\n  5 stars f…
    ## # … with 40 more rows
