…
  return(reviews)
  
  
}
base_url = "https://www.amazon.com/product-reviews/B00005JNBQ/ref=cm_cr_arp_d_viewopt_rvwer?ie=UTF8&reviewerType=avp_only_reviews&sortBy=recent&pageNumber="
urls = str_c(base_url, 1:5)
bind_rows(
  get_page_reviews(urls[1]),
  get_page_reviews(urls[2]),
  get_page_reviews(urls[3]),
  get_page_reviews(urls[4]),
  get_page_reviews(urls[5]))
```

    ## # A tibble: 50 × 3
    ##    title                                                 stars   text           
    ##    <chr>                                                 <chr>   <chr>          
    ##  1 Yeah., it was pretty good.                            5.0 ou… "\n  Yeah, it …
    ##  2 Love it                                               5.0 ou… "\n  Didn't li…
    ##  3 it was                                                5.0 ou… "\n  mad good …
    ##  4 Fun!                                                  4.0 ou… "\n  Fun and e…
    ##  5 Vintage                                               5.0 ou… "\n  Easy to o…
    ##  6 too many commercials                                  1.0 ou… "\n  5 minutes…
    ##  7 this film is so good!                                 5.0 ou… "\n  VOTE FOR …
    ##  8 Good movie                                            5.0 ou… "\n  Weird sto…
    ##  9 I Just everyone to know this....                      5.0 ou… "\n  VOTE FOR …
    ## 10 the cobweb in his hair during the bike ramp scene lol 5.0 ou… "\n  5 stars f…
    ## # … with 40 more rows
…
